…
Multiple boot-strap samples

```r
boot_straps = 
  tibble(strap_number = 1:5000) |> 
  mutate(
    strap_sample = map(strap_number, \(i) boot_sample(df = weather_df))
  )

boot_straps
```

```
## # A tibble: 5,000 × 2
##    strap_number strap_sample      
##           <int> <list>            
##  1            1 <tibble [365 × 6]>
##  2            2 <tibble [365 × 6]>
##  3            3 <tibble [365 × 6]>
##  4            4 <tibble [365 × 6]>
##  5            5 <tibble [365 × 6]>
##  6            6 <tibble [365 × 6]>
##  7            7 <tibble [365 × 6]>
##  8            8 <tibble [365 × 6]>
##  9            9 <tibble [365 × 6]>
## 10           10 <tibble [365 × 6]>
## # ℹ 4,990 more rows
```

```r
boot_straps |> 
  slice(1:3) |> 
  mutate(strap_sample = map(strap_sample, arrange, tmin)) |> 
  pull(strap_sample)
```

```
## [[1]]
## # A tibble: 365 × 6
##    name           id          date        prcp  tmax  tmin
##    <chr>          <chr>       <date>     <dbl> <dbl> <dbl>
##  1 CentralPark_NY USW00094728 2022-12-24     0  -9.3 -13.8
##  2 CentralPark_NY USW00094728 2022-12-24     0  -9.3 -13.8
##  3 CentralPark_NY USW00094728 2022-12-24     0  -9.3 -13.8
##  4 CentralPark_NY USW00094728 2022-12-23   465  14.4 -13.2
##  5 CentralPark_NY USW00094728 2022-12-23   465  14.4 -13.2
##  6 CentralPark_NY USW00094728 2022-01-15     0  -6   -12.1
##  7 CentralPark_NY USW00094728 2022-01-16    94   2.8 -12.1
##  8 CentralPark_NY USW00094728 2022-01-22     0  -1.6 -10.5
##  9 CentralPark_NY USW00094728 2022-12-25     0  -2.1  -9.9
## 10 CentralPark_NY USW00094728 2022-01-21     0  -5.5  -9.9
## # ℹ 355 more rows
## 
## [[2]]
## # A tibble: 365 × 6
##    name           id          date        prcp  tmax  tmin
##    <chr>          <chr>       <date>     <dbl> <dbl> <dbl>
##  1 CentralPark_NY USW00094728 2022-12-23   465  14.4 -13.2
##  2 CentralPark_NY USW00094728 2022-12-23   465  14.4 -13.2
##  3 CentralPark_NY USW00094728 2022-12-23   465  14.4 -13.2
##  4 CentralPark_NY USW00094728 2022-01-15     0  -6   -12.1
##  5 CentralPark_NY USW00094728 2022-01-11     0  -4.3  -9.3
##  6 CentralPark_NY USW00094728 2022-02-14     0  -3.8  -8.8
##  7 CentralPark_NY USW00094728 2022-02-15     0  -1    -8.8
##  8 CentralPark_NY USW00094728 2022-02-14     0  -3.8  -8.8
##  9 CentralPark_NY USW00094728 2022-02-06     0  -1    -8.2
## 10 CentralPark_NY USW00094728 2022-01-27     0   0    -8.2
## # ℹ 355 more rows
## 
## [[3]]
## # A tibble: 365 × 6
##    name           id          date        prcp  tmax  tmin
##    <chr>          <chr>       <date>     <dbl> <dbl> <dbl>
##  1 CentralPark_NY USW00094728 2022-12-23   465  14.4 -13.2
##  2 CentralPark_NY USW00094728 2022-01-15     0  -6   -12.1
##  3 CentralPark_NY USW00094728 2022-01-16    94   2.8 -12.1
##  4 CentralPark_NY USW00094728 2022-01-16    94   2.8 -12.1
##  5 CentralPark_NY USW00094728 2022-01-15     0  -6   -12.1
##  6 CentralPark_NY USW00094728 2022-01-30     0  -3.2 -11  
##  7 CentralPark_NY USW00094728 2022-12-25     0  -2.1  -9.9
##  8 CentralPark_NY USW00094728 2022-01-11     0  -4.3  -9.3
##  9 CentralPark_NY USW00094728 2022-02-14     0  -3.8  -8.8
## 10 CentralPark_NY USW00094728 2022-01-27     0   0    -8.2
## # ℹ 355 more rows
```
…
