…
### Running initial code provided: Downloading the data

Code above is to import and do initial cleaning on our weather data.

Bootstrapping

``` r
boot_straps = 
  weather_df |> 
  modelr::bootstrap(n = 5000)

boot_straps |> pull(strap) |> nth(1) |> as_tibble()
```

    ## # A tibble: 365 × 6
    ##    name           id          date        prcp  tmax  tmin
    ##    <chr>          <chr>       <date>     <dbl> <dbl> <dbl>
    ##  1 CentralPark_NY USW00094728 2022-10-25     0  21.1  16.1
    ##  2 CentralPark_NY USW00094728 2022-09-11    81  24.4  19.4
    ##  3 CentralPark_NY USW00094728 2022-07-20     0  35    25.6
    ##  4 CentralPark_NY USW00094728 2022-04-17     0  10.6   5  
    ##  5 CentralPark_NY USW00094728 2022-01-21     0  -5.5  -9.9
    ##  6 CentralPark_NY USW00094728 2022-03-01     0   8.9  -0.5
    ##  7 CentralPark_NY USW00094728 2022-04-28     0  14.4   4.4
    ##  8 CentralPark_NY USW00094728 2022-05-25     0  21.1  11.7
    ##  9 CentralPark_NY USW00094728 2022-11-02     0  21.1  12.2
    ## 10 CentralPark_NY USW00094728 2022-11-09     0  11.7   4.4
    ## # ℹ 355 more rows
…
**Cross-Validation**

``` r
cv_df = 
  crossv_mc(birthweight, 100)

cv_df |> pull(train) |> nth(1) |> as_tibble()
```

    ## # A tibble: 3,472 × 18
    ##    babysex bhead blength   bwt delwt fincome frace gaweeks malform menarche
    ##    <fct>   <int>   <int> <int> <int>   <int> <chr>   <dbl> <fct>      <int>
    ##  1 Female     34      51  3629   177      35 White    39.9 absent        13
    ##  2 Male       34      48  3062   156      65 Black    25.9 absent        14
    ##  3 Female     36      50  3345   148      85 White    39.9 absent        12
    ##  4 Female     34      52  3374   156       5 White    41.6 absent        13
    ##  5 Male       33      52  3374   129      55 White    40.7 absent        12
    ##  6 Female     33      46  2523   126      96 Black    40.3 absent        14
    ##  7 Female     33      49  2778   140       5 White    37.4 absent        12
    ##  8 Male       36      52  3515   146      85 White    40.3 absent        11
    ##  9 Female     35      51  3317   130      55 White    43.4 absent        13
    ## 10 Male       35      51  3459   146      55 White    39.4 absent        12
    ## # ℹ 3,462 more rows
    ## # ℹ 8 more variables: mheight <int>, momage <int>, mrace <chr>, parity <int>,
    ## #   ppbmi <dbl>, ppwt <int>, smoken <dbl>, wtgain <int>

``` r
cv_df |> pull(test) |> nth(1) |> as_tibble()
```

    ## # A tibble: 869 × 18
    ##    babysex bhead blength   bwt delwt fincome frace gaweeks malform menarche
    ##    <fct>   <int>   <int> <int> <int>   <int> <chr>   <dbl> <fct>      <int>
    ##  1 Male       34      52  3062   157      55 White    40   absent        14
    ##  2 Male       33      50  3459   169      75 Black    40.7 absent        12
    ##  3 Male       35      56  3232   147      55 White    42.1 absent        13
    ##  4 Female     34      51  3005   149      85 White    39.3 absent        14
    ##  5 Female     34      51  3232   155      55 White    41.6 absent        15
    ##  6 Female     33      49  3147   140      45 White    40.6 absent        12
    ##  7 Female     34      49  3317   142      35 White    40.4 absent        12
    ##  8 Female     34      49  3033   128      25 White    41.1 absent        12
    ##  9 Male       33      51  3345   140      85 White    38.6 absent        13
    ## 10 Male       34      52  3118   130      75 White    41   absent        12
    ## # ℹ 859 more rows
    ## # ℹ 8 more variables: mheight <int>, momage <int>, mrace <chr>, parity <int>,
    ## #   ppbmi <dbl>, ppwt <int>, smoken <dbl>, wtgain <int>
…
